{
    "prodList": [{
        "fullName": "Mirasol Illuminator",
        "shortName": "mirasol"
    }, {
        "fullName": "Quantum Cell Expansion System",
        "shortName": "quantum"
    }, {
        "fullName": "Reveos System",
        "shortName": "reveos"
    }, {
        "fullName": "Spectra Optia System",
        "shortName": "optia"
    }, {
        "fullName": "Trima Accel System",
        "shortName": "trima"
    }]
}