{"strings": {
    "cause": "可能的原因",
    "action": "操作步骤",
    "start": "机器启动测试",
    "not_conn": "未连接病人",
    "conn": "已连接病人",
    "disconn": "脱离病人",
    "instructions": "屏幕指示",
    "information": "警报信息",
    "identification": "警报识别",
    "layer": "层",
    "system": "系统",
    "protocol": "操作程序",
    "alarm_name": "警报名称",
    "alarm_expl": "警报说明",
    "state": "System State",
        "message_number": "讯息编号",
    "message_type": "讯息类型",
    "version": "版本",  
    "occurs": "发生时处于",
    "more_info1": "详情 1",
    "more_info2": "详情 2",
    "more_info3": "详情 3",
    "more_info4": "详情 4",
    "more_info5": "详情 5",
    "more_info6": "详情 6",
    "description": "警报描述",
    "response": "系统反应",
    "causeaction": "可能原因/操作人员处理方法",
    "possible_cause": "可能原因",
    "operator_action": "操作人员处理方法"
}}
