{
    "nameList": [{
        "number": "1",
        "alarmId": "ACCESS_NEGATIVE_ALARM_NOT_REACHED",
        "log": "Access Neg. NOT reached ",
        "name": "chyba při tlakovém testu"
    }, {
        "number": "2",
        "alarmId": "ACCESS_PRESSURE_DECAY_FAILURE",
        "log": "Access decay failure ",
        "name": "chyba při tlakovém testu"
    }, {
        "number": "3",
        "alarmId": "AC_DETECTED_PRIOR_TO_AC_PRIME_FAILURE",
        "log": "AC prior to AC Prime Failure",
        "name": "porucha - tekutina v AC senzoru"
    }, {
        "number": "4",
        "alarmId": "AC_LEVEL_ALARM",
        "log": "NO AC seen at fluid detector ",
        "name": "AC senzor detekuje vzduch"
    }, {
        "number": "5",
        "alarmId": "AC_OCCULSION_DETECTED",
        "log": "Possible AC Occlusion check AC bag and line ",
        "name": "překážka v trase AC"
    }, {
        "number": "6",
        "alarmId": "AC_PRIME_INLET_ALARM",
        "log": "AC Occulusion during inlet prime",
        "name": "překážka v trase AC"
    }, {
        "number": "7",
        "alarmId": "APS_AUTO_ZERO_FAILED_RANGE",
        "log": "APS auto-zero excessive variation in readings ",
        "name": "selhání senzoru tlaku na přístupu"
    }, {
        "number": "8",
        "alarmId": "APS_AUTO_ZERO_FAILED_MAX",
        "log": "APS auto-zero above maximum allowed ",
        "name": "selhání senzoru tlaku na přístupu"
    }, {
        "number": "9",
        "alarmId": "APS_AUTO_ZERO_FAILED_MIN",
        "log": "APS auto-zero below minimum allowed ",
        "name": "selhání senzoru tlaku na přístupu"
    }, {
        "number": "10",
        "alarmId": "APS_DECOUPLING",
        "log": "APS Sensor decoupled",
        "name": "chyba senzoru tlaku"
    }, {
        "number": "12",
        "alarmId": "APS_DURING_PAUSE",
        "log": "Access pressure alarm occurred in pause condition ",
        "name": "příliš vysoký návratový tlak"
    }, {
        "number": "14",
        "alarmId": "APS_PUMPS_SLOW",
        "log": "Automatic APS slowing of the pumps ",
        "name": "nízký odběrový/vstupní tlak"
    }, {
        "number": "15",
        "alarmId": "APS_TOO_HIGH",
        "log": "Access/Return Pressure TOO High ",
        "name": "příliš vysoký návratový tlak"
    }, {
        "number": "16",
        "alarmId": "APS_TOO_LOW",
        "log": "Access Pressure TOO Low ",
        "name": "nízký odběrový/vstupní tlak"
    }, {
        "number": "17",
        "alarmId": "BARCODE_INFO_ALARM",
        "log": "Information alarm to raise the barcode mgmt. screen ",
        "name": "Pozornost operátora"
    }, {
        "number": "18",
        "alarmId": "CASSETTE_FAILURE",
        "log": "Cassette Failure ",
        "name": "chyba kazety"
    }, {
        "number": "19",
        "alarmId": "CASSETTE_INVALID_ALARM",
        "log": "Cassette type not valid for procedure selected ",
        "name": "chyba typu odběrové soupravy"
    }, {
        "number": "20",
        "alarmId": "CASSETTE_UNRECOGNIZED_ALARM",
        "log": "Cassette stamp color not recognized ",
        "name": "chyba typu odběrové soupravy"
    }, {
        "number": "21",
        "alarmId": "CENTRIFUGE_HARDWARE_FAILURE",
        "log": "Cent. hardware Failure ",
        "name": "selhání centrifugy"
    }, {
        "number": "22",
        "alarmId": "CENTRIFUGE_INTEGRAL_FAILURE",
        "log": "Cent. integration Failure ",
        "name": "porucha funkce hardware"
    }, {
        "number": "23",
        "alarmId": "CENTRIFUGE_SHUTDOWN_FAILURE",
        "log": "Cent. shutdown Failure",
        "name": "selhání centrifugy"
    }, {
        "number": "24",
        "alarmId": "CFR11_TRACKING_ALARM",
        "log": "Audit Tracking Alarm to raise selection mgmt. screen ",
        "name": "Pozornost operátora"
    }, {
        "number": "25",
        "alarmId": "COLLECT_VALVE_FAILURE",
        "log": "Collect valve Failure ",
        "name": "chyba ventilu"
    }, {
        "number": "26",
        "alarmId": "CONCENTRATION_OUT_OF_TOLERANCE",
        "log": "Concentration outside tolerance ",
        "name": "koncentrace trombocytů mimo rozsah"
    }, {
        "number": "27",
        "alarmId": "CPS_TOO_HIGH",
        "log": "Centrifuge pressure TOO High ",
        "name": "vysoký tlak v centrifuze"
    }, {
        "number": "28",
        "alarmId": "DISCONNECT_TEST_ALARM",
        "log": "Disconnect donor - UNLOADING PUMPS!!! ",
        "name": "chyba při testu odpojení dárce"
    }, {
        "number": "29",
        "alarmId": "DISCONNECT_TEST_ALERT",
        "log": "Disconnect alert ",
        "name": "chyba při odpojování dárce"
    }, {
        "number": "30",
        "alarmId": "DOOR_LATCH_FAILURE",
        "log": "Door latch Failure ",
        "name": "dveře centrifugy nejsou zavřené"
    }, {
        "number": "31",
        "alarmId": "DOOR_LOCK_ALARM",
        "log": "Door NOT Locked / Centrifuge can not run ",
        "name": "dveře centrifugy nejsou zapadlé"
    }, {
        "number": "32",
        "alarmId": "DOOR_OPEN_ALARM",
        "log": "Door Open / Centrifuge can not run ",
        "name": "dveře centrifugy jsou otevřené"
    }, {
        "number": "33",
        "alarmId": "DRBC_SPLIT_ALERT",
        "log": "DRBC Split alert ",
        "name": "Výstraha - rozdělení erytrocytů při odběru dvojité dávky"
    }, {
        "number": "35",
        "alarmId": "EVACUATION_PRESSURE_ALERT",
        "log": "Pressure detected during bag evacuation ",
        "name": "Chyba kontroly tlaku"
    }, {
        "number": "36",
        "alarmId": "FAILURE_TO_MOVE_CASSETTE",
        "log": "Failure to move cassette ",
        "name": "porucha pohybu kazety"
    }, {
        "number": "37",
        "alarmId": "FAILURE_TO_MOVE_VALVE",
        "log": "Failure to move valve ",
        "name": "selhání pohybu ventilu"
    }, {
        "number": "38",
        "alarmId": "FAILURE_TO_PRESSURIZE_INLET",
        "log": "Failure to pressurize inlet ",
        "name": "chyba při tlakovém testu"
    }, {
        "number": "39",
        "alarmId": "FAILURE_TO_RELIEVE_PRESSURE",
        "log": "Failure to Relieve access pressure ",
        "name": "chyba uvolnění tlaku"
    }, {
        "number": "40",
        "alarmId": "FIRST_CYCLE_TOO_LATE_ALARM",
        "log": "First cycle seen to late ",
        "name": "chyba prvního cyklu"
    }, {
        "number": "41",
        "alarmId": "FIRST_CYCLE_TOO_SOON_ALARM",
        "log": "First cycle seen to soon",
        "name": "chyba prvního cyklu"
    }, {
        "number": "42",
        "alarmId": "HIGH_CENTRIFUGE_COMMAND",
        "log": "Centrifuge command to HIGH ",
        "name": "chyba rychlosti centrifugy"
    }, {
        "number": "43",
        "alarmId": "HYPOVOLEMIA_ALARM",
        "log": "HYPOVOLEMIA detected; STOP Procedure....",
        "name": "limit hypovolémie u dárce"
    }, {
        "number": "44",
        "alarmId": "LEAK_DETECTED_FAILURE",
        "log": "Leak detected Failure ",
        "name": "detekován únik tekutiny"
    }, {
        "number": "45",
        "alarmId": "LEAK_DETECTOR_ERROR_FAILURE",
        "log": "Leak detector ERROR Failure ",
        "name": "selhání detektoru úniku tekutin"
    }, {
        "number": "46",
        "alarmId": "LEAK_TEST_FAILURE",
        "log": "Leak test Failure ",
        "name": "chyba v testu na únik tekutiny"
    }, {
        "number": "47",
        "alarmId": "LOW_LEVEL_DETECTED_PRIOR_TO_EXPECTED",
        "log": "Low level before BLOOD Prime Ret.",
        "name": "porucha - tekutina detekována dříve než začalo plnění"
    }, {
        "number": "48",
        "alarmId": "LOW_LEVEL_SENSOR_SEEN_TOO_LATE_FAILURE",
        "log": "Low level too late",
        "name": "selhání dolního senzoru hladiny"
    }, {
        "number": "49",
        "alarmId": "LOW_LEVEL_SENSOR_SEEN_TOO_SOON_FAILURE",
        "log": "Low level too soon",
        "name": "porucha - tekutina je detekována předčasně"
    }, {
        "number": "50",
        "alarmId": "LOW_PLATELET_CONCENTRATION_ALERT",
        "log": "Low platelet concentration detected",
        "name": "detekována nízká koncentrace trombocytů"
    }, {
        "number": "51",
        "alarmId": "MAINTAIN_DONOR_ACCESS_ALERT",
        "log": "Pumps Paused 3 Minutes ",
        "name": "tříminutová pauza"
    }, {
        "number": "52",
        "alarmId": "minus12V_TOO_HIGH",
        "log": "-12V power to HIGH ",
        "name": "chyba napětí"
    }, {
        "number": "53",
        "alarmId": "minus12V_TOO_LOW",
        "log": "-12V power to LOW ",
        "name": "chyba napětí"
    }, {
        "number": "54",
        "alarmId": "MOTOR_HARDWARE_FAILURE",
        "log": "Motor Hardware Failure ",
        "name": "porucha funkce hardware"
    }, {
        "number": "55",
        "alarmId": "ONE_MINUTE_PAUSE",
        "log": "Pumps Paused 1 Minute RPM reduced ",
        "name": "stojí jednu minutu"
    }, {
        "number": "56",
        "alarmId": "OVERTEMP_ALARM",
        "log": "Basin overtemperature detected ",
        "name": "chyba v teplotě centrifugy"
    }, {
        "number": "57",
        "alarmId": "OVERTEMP_FAILURE",
        "log": "Basin overtemperature detected",
        "name": "chyba v teplotě centrifugy"
    }, {
        "number": "59",
        "alarmId": "PAUSE_BUTTON_ALARM",
        "log": "PAUSE button pressed ",
        "name": "pumpy pozastaveny"
    }, {
        "number": "60",
        "alarmId": "plus64V_TOO_HIGH",
        "log": "64V power to HIGH ",
        "name": "chyba napětí"
    }, {
        "number": "61",
        "alarmId": "plus64V_TOO_LOW",
        "log": "64V power to LOW ",
        "name": "chyba napětí"
    }, {
        "number": "62",
        "alarmId": "plus24V_TOO_HIGH",
        "log": "24V power to HIGH ",
        "name": "chyba napětí"
    }, {
        "number": "63",
        "alarmId": "plus24V_TOO_LOW",
        "log": "24V power to LOW ",
        "name": "chyba napětí"
    }, {
        "number": "64",
        "alarmId": "plus12V_TOO_HIGH",
        "log": "12V power to HIGH ",
        "name": "chyba napětí"
    }, {
        "number": "65",
        "alarmId": "plus12V_TOO_LOW",
        "log": "12V power to LOW ",
        "name": "chyba napětí"
    }, {
        "number": "66",
        "alarmId": "PLASMA_VALVE_FAILURE",
        "log": "Plasma valve Failure ",
        "name": "chyba ventilu"
    }, {
        "number": "67",
        "alarmId": "POWER_FAIL_CONTINUE",
        "log": "PFR detected with continue allowed ",
        "name": "došlo k výpadku elektřiny"
    }, {
        "number": "68",
        "alarmId": "POWER_FAIL_RINSEBACK",
        "log": "PFR detected with rinseback allowed ",
        "name": "došlo k výpadku elektřiny"
    }, {
        "number": "69",
        "alarmId": "POWER_FAIL_ABORT",
        "log": "PFR detected with recovery prohibited",
        "name": "došlo k výpadku elektřiny"
    }, {
        "number": "70",
        "alarmId": "POWER_TEST_FAILURE",
        "log": "Power test Failure ",
        "name": "chyba při testu napájení"
    }, {
        "number": "72",
        "alarmId": "PRIME_FAILURE",
        "log": "Prime Failure",
        "name": "chyba plnění AC roztokem"
    }, {
        "number": "73",
        "alarmId": "PROCEDURE_MODIFIED",
        "log": "Procedure needs operator confirmation to continue ",
        "name": "změněná procedura"
    }, {
        "number": "74",
        "alarmId": "PUMP_OVERSPEED_COMMAND_FAILURE",
        "log": "Pump overspeed command Failure ",
        "name": "selhání pumpy"
    }, {
        "number": "75",
        "alarmId": "PUMP_RPM_COMMAND_FAILURE",
        "log": "Pump RPM command Failure ",
        "name": "selhání pumpy"
    }, {
        "number": "76",
        "alarmId": "RBC_DETECTOR_CAL_FAILURE",
        "log": "RBC Detector Calibration Failure ",
        "name": "Chyba detektoru erytrocytů"
    }, {
        "number": "77",
        "alarmId": "RBC_VALVE_FAILURE",
        "log": "RBC valve Failure ",
        "name": "chyba ventilu"
    }, {
        "number": "78",
        "alarmId": "REPLACEMENT_FLUID_ALARM",
        "log": "Prompt operator to connect replacement fluid ",
        "name": "Pozornost operátora"
    }, {
        "number": "79",
        "alarmId": "REPLACEMENT_FLUID_BOLUS_ALARM",
        "log": "Prompt operator to connect replacement for a Bolus of fluid ",
        "name": "Pozornost operátora"
    }, {
        "number": "80",
        "alarmId": "RESERVOIR_ALARM",
        "log": "Reservoir Sensor Failure - Fluid high : Air low ",
        "name": "chyba senzoru hladiny"
    }, {
        "number": "81",
        "alarmId": "RESERVOIR_DRAW_TOO_LONG_ALARM",
        "log": "Draw cycle took too long to fill the reservoir ",
        "name": "sensor hladiny detekoval chybu"
    }, {
        "number": "82",
        "alarmId": "RESERVOIR_DRAW_TOO_LONG_ALARM_RBC_PL",
        "log": "Draw cycle too long - RBC/Plasma set ",
        "name": "chyba senzoru hladiny"
    }, {
        "number": "83",
        "alarmId": "RESERVOIR_DRAW_TOO_SHORT_ALARM",
        "log": "Draw cycle was too short to fill the reservoir ",
        "name": "chyba senzoru hladiny"
    }, {
        "number": "84",
        "alarmId": "RESERVOIR_RETURN_TOO_LONG_ALARM",
        "log": "Return cycle took too long to empty the reservoir ",
        "name": "chyba senzoru hladiny"
    }, {
        "number": "85",
        "alarmId": "RESERVOIR_RETURN_TOO_LONG_ALARM_A1",
        "log": "Return cycle took too long to empty the reservoir - A1",
        "name": "selhání systémového testu"
    }, {
        "number": "86",
        "alarmId": "RESERVOIR_RETURN_TOO_SHORT_ALARM",
        "log": "Return cycle was too short to empty the reservoir ",
        "name": "chyba senzoru hladiny"
    }, {
        "number": "87",
        "alarmId": "RESERVOIR_RETURN_FAIL",
        "log": "Invalid total volume during return cycle",
        "name": "selhání systémového testu"
    }, {
        "number": "88",
        "alarmId": "RETURN_LINE_OCCLUSION",
        "log": "Possible return line occlusion detected ",
        "name": "příliš vysoký návratový tlak"
    }, {
        "number": "89",
        "alarmId": "RETURN_LINE_OCCLUSION_A1",
        "log": "Possible return line occlusion detected - A1 ",
        "name": "Selhání testu systému"
    }, {
        "number": "90",
        "alarmId": "SET_IDENTIFICATION_ALARM",
        "log": "Prompt operator to manually determine the set type ",
        "name": "Pozornost operátora"
    }, {
        "number": "91",
        "alarmId": "SPILLOVER_DETECTED",
        "log": "Spillover Detected ",
        "name": "přeplavení erytrocytů"
    }, {
        "number": "92",
        "alarmId": "STOP_BUTTON_ALARM",
        "log": "STOP button pressed ",
        "name": "centrifuga zastavena"
    }, {
        "number": "93",
        "alarmId": "TEN_MINUTE_PAUSE",
        "log": "Pumps Paused 10 Minutes ",
        "name": "desetiminutová pauza"
    }, {
        "number": "94",
        "alarmId": "TEN_MINUTE_PAUSE_ALARM",
        "log": "Paused 10 Minutes without access maintained",
        "name": "desetiminutová pauza"
    }, {
        "number": "95",
        "alarmId": "TOO_MANY_RESERVOIR_DRAW_ALARMS",
        "log": "Too many consecutive reservoir draw alarms",
        "name": "chyba senzoru hladiny"
    }, {
        "number": "96",
        "alarmId": "TOO_MANY_RESERVOIR_RETURN_ALARMS",
        "log": "Too many consecutive reservoir return alarms",
        "name": "chyba senzoru hladiny"
    }, {
        "number": "97",
        "alarmId": "UNLOADING_BAD_CASSETTE_POSITION",
        "log": "UNLOADING Bad Cassette Position ",
        "name": "špatná poloha pro vyjímání kazety"
    }, {
        "number": "98",
        "alarmId": "VALVE_HARDWARE_FAILURE",
        "log": "Valve hardware Failure ",
        "name": "selhání ventilu"
    }, {
        "number": "99",
        "alarmId": "VALVE_TEST_FAILURE",
        "log": "Valve test Failure ",
        "name": "selhání ventilu"
    }, {
        "number": "102",
        "alarmId": "BARCODE_INITIALIZATION_ALARM",
        "log": "Unable to initialize barcode sentinel",
        "name": "Selhání testu systému"
    }, {
        "number": "103",
        "alarmId": "BITMAP_LOAD_FAILURE",
        "log": "Unable to load bitmap",
        "name": "Selhání testu systému"
    }, {
        "number": "104",
        "alarmId": "CAL_DAT_BAD_FILE",
        "log": "cal.dat file open error",
        "name": "Selhání testu systému"
    }, {
        "number": "105",
        "alarmId": "CAL_DAT_NO_APS_CAL",
        "log": "cal.dat APS not calibrated",
        "name": "Selhání testu systému"
    }, {
        "number": "106",
        "alarmId": "CAL_DAT_NO_CPS_CAL",
        "log": "cal.dat CPS not calibrated",
        "name": "Selhání testu systému"
    }, {
        "number": "107",
        "alarmId": "CAL_DAT_NO_RBC_CAL",
        "log": "cal.dat RBC detector not calibrated",
        "name": "Selhání testu systému"
    }, {
        "number": "108",
        "alarmId": "CAL_DAT_PARSE_ERROR",
        "log": "cal.dat file parsing error",
        "name": "Selhání testu systému"
    }, {
        "number": "109",
        "alarmId": "CAL_DAT_VALUE_NOT_FOUND",
        "log": "cal.dat file value not found",
        "name": "Selhání testu systému"
    }, {
        "number": "110",
        "alarmId": "CAL_DAT_VALUE_OUT_OF_RANGE",
        "log": "cal.dat file value out of range",
        "name": "Selhání testu systému"
    }, {
        "number": "111",
        "alarmId": "CFR11_LOG_FILE_ERROR",
        "log": "CFR11 log file operation failed",
        "name": "Selhání testu systému"
    }, {
        "number": "112",
        "alarmId": "COBE_CONFIG_BAD_FILE",
        "log": "Cobe configuration file open error",
        "name": "Selhání testu systému"
    }, {
        "number": "113",
        "alarmId": "COBE_CONFIG_VALUE_NOT_FOUND",
        "log": "Cobe configuration file value not found",
        "name": "Selhání testu systému"
    }, {
        "number": "114",
        "alarmId": "COBE_CONFIG_VALUE_OUT_OF_RANGE",
        "log": "Cobe configuration file value out of range",
        "name": "Selhání testu systému"
    }, {
        "number": "115",
        "alarmId": "COBE_CONFIG_PARSE_ERROR",
        "log": "Cobe configuration file parsing error",
        "name": "Selhání testu systému"
    }, {
        "number": "116",
        "alarmId": "CONFIGDAT_BAD_FILE",
        "log": "Config.dat file error",
        "name": "Selhání testu systému"
    }, {
        "number": "117",
        "alarmId": "CONFIGDAT_VALUE_NOT_FOUND",
        "log": "Config.dat value not found",
        "name": "Selhání testu systému"
    }, {
        "number": "118",
        "alarmId": "CONFIGDAT_VALUE_OUT_OF_RANGE",
        "log": "Config.dat value out of range",
        "name": "Selhání testu systému"
    }, {
        "number": "119",
        "alarmId": "CONFIGDAT_PARSE_ERROR",
        "log": "Config.dat parsing error",
        "name": "Selhání testu systému"
    }, {
        "number": "120",
        "alarmId": "CONFIGDAT_WRITE_ERROR",
        "log": "Config.dat write error",
        "name": "Selhání testu systému"
    }, {
        "number": "121",
        "alarmId": "CPUID_BAD_CONTROL_DATA_FILE",
        "log": "Error reading control CPU data file",
        "name": "Selhání testu systému"
    }, {
        "number": "122",
        "alarmId": "CPUID_BAD_SAFETY_DATA_FILE",
        "log": "Error reading safety CPU data file",
        "name": "Selhání testu systému"
    }, {
        "number": "123",
        "alarmId": "CPUID_NO_CONTROL_DATA_FILE",
        "log": "Unable to open control CPU data file",
        "name": "Selhání testu systému"
    }, {
        "number": "124",
        "alarmId": "CPUID_NO_SAFETY_DATA_FILE",
        "log": "Unable to open safety CPU data file",
        "name": "Selhání testu systému"
    }, {
        "number": "125",
        "alarmId": "CPUID_CONTROL_HW_INVALID",
        "log": "Control CPU is not on the list of validated hardware",
        "name": "Selhání testu systému"
    }, {
        "number": "126",
        "alarmId": "CPUID_SAFETY_HW_INVALID",
        "log": "Safety CPU is not on the list of validated hardware",
        "name": "Selhání testu systému"
    }, {
        "number": "127",
        "alarmId": "FLOW_CALCULATION_ERROR",
        "log": "Flow calculation error",
        "name": "Selhání testu systému"
    }, {
        "number": "128",
        "alarmId": "GUI_UNEXPECTED_CHOICE",
        "log": "GUI unexpected choice",
        "name": "Selhání testu systému"
    }, {
        "number": "129",
        "alarmId": "GUI_VERIFPRD_NO_EXTENDED_TEXT",
        "log": "GUI verify product screen invoked with no verification reasons",
        "name": "Selhání testu systému"
    }, {
        "number": "130",
        "alarmId": "HARDWARE_FAULT",
        "log": "Proc cannot control the hardware",
        "name": "Selhání testu systému"
    }, {
        "number": "131",
        "alarmId": "HW_DAT_BAD_FILE",
        "log": "hw.dat file open error",
        "name": "Selhání testu systému"
    }, {
        "number": "132",
        "alarmId": "HW_DAT_VALUE_NOT_FOUND",
        "log": "hw.dat file value not found",
        "name": "Selhání testu systému"
    }, {
        "number": "133",
        "alarmId": "HW_DAT_VALUE_OUT_OF_RANGE",
        "log": "hw.dat file value out of range",
        "name": "Selhání testu systému"
    }, {
        "number": "134",
        "alarmId": "HW_DAT_PARSE_ERROR",
        "log": "hw.dat file parsing error",
        "name": "Selhání testu systému"
    }, {
        "number": "135",
        "alarmId": "HYPOVOLEMIA_NOT_INITIALIZED",
        "log": "Hypovolemia object used before being initialized",
        "name": "Selhání testu systému"
    }, {
        "number": "136",
        "alarmId": "INTERNAL_ATOD_ERROR",
        "log": "Internal A/D error detected",
        "name": "Selhání testu systému"
    }, {
        "number": "137",
        "alarmId": "INTERNAL_TIMING_ERROR",
        "log": "Internal timing error detected",
        "name": "Selhání testu systému"
    }, {
        "number": "138",
        "alarmId": "INVALID_ALARM_FAULT",
        "log": "Alarm handler fault",
        "name": "Selhání testu systému"
    }, {
        "number": "139",
        "alarmId": "MEMORY_TEST_OSINFO_FAILURE",
        "log": "Memory test OS information retrieval error",
        "name": "Selhání testu systému"
    }, {
        "number": "140",
        "alarmId": "MEMORY_TEST_SAFETY_MEMORY_INSUFFICIENT",
        "log": "Memory test safety memory insufficient",
        "name": "Selhání testu systému"
    }, {
        "number": "141",
        "alarmId": "MEMORY_TEST_CONTROL_MEMORY_INSUFFICIENT",
        "log": "Memory test control memory insufficient",
        "name": "Selhání testu systému"
    }, {
        "number": "142",
        "alarmId": "PFR_ALARMSTATE_INVALID",
        "log": "PFR initialization detected an invalid alarm condition",
        "name": "Selhání testu systému"
    }, {
        "number": "143",
        "alarmId": "PFR_CASSETTE_INVALID",
        "log": "PFR initialization could not create cassette object",
        "name": "Selhání testu systému"
    }, {
        "number": "144",
        "alarmId": "PREDICT_BAD_TARGET_SUBSTATE",
        "log": "Predict processed invalid target substate",
        "name": "Selhání testu systému"
    }, {
        "number": "145",
        "alarmId": "PREDICT_INVALID_GUI_REQUEST",
        "log": "Predict received invalid GUI request",
        "name": "Selhání testu systému"
    }, {
        "number": "146",
        "alarmId": "PREDICT_INVALID_MODIFY_REQUEST",
        "log": "Predict detected invalid product modification request",
        "name": "Selhání testu systému"
    }, {
        "number": "147",
        "alarmId": "PREDICT_NO_SELECTED_PROCEDURE",
        "log": "Predict detected system running with no selected procedure",
        "name": "Selhání testu systému"
    }, {
        "number": "148",
        "alarmId": "PREDICT_NOT_RESPONDING",
        "log": "Predict is not responding to Proc",
        "name": "Selhání testu systému"
    }, {
        "number": "149",
        "alarmId": "PROC_STATES_FILE_NOT_FOUND",
        "log": "Proc states file not found",
        "name": "Selhání testu systému"
    }, {
        "number": "150",
        "alarmId": "PROC_STATES_FILE_READ_ERROR",
        "log": "Proc states file read error",
        "name": "Selhání testu systému"
    }, {
        "number": "151",
        "alarmId": "PROC_STATES_INIT_ERROR",
        "log": "Proc states file initialization error",
        "name": "Selhání testu systému"
    }, {
        "number": "152",
        "alarmId": "PROC_STATES_PROCESSING_ERROR",
        "log": "Proc state manager processing error",
        "name": "Selhání testu systému"
    }, {
        "number": "153",
        "alarmId": "RANDOM_FILE_STORAGE_ERROR",
        "log": "Error managing random file storage",
        "name": "Selhání testu systému"
    }, {
        "number": "154",
        "alarmId": "RBC_DAT_BAD_FILE",
        "log": "rbc.dat file open error",
        "name": "Selhání testu systému"
    }, {
        "number": "155",
        "alarmId": "RBC_DAT_VALUE_NOT_FOUND",
        "log": "rbc.dat file value not found",
        "name": "Selhání testu systému"
    }, {
        "number": "156",
        "alarmId": "RBC_DAT_VALUE_OUT_OF_RANGE",
        "log": "rbc.dat file value out of range",
        "name": "Selhání testu systému"
    }, {
        "number": "157",
        "alarmId": "RBC_DAT_PARSE_ERROR",
        "log": "rbc.dat file parsing error",
        "name": "Selhání testu systému"
    }, {
        "number": "158",
        "alarmId": "RET_OCC_MONITOR_FAILURE",
        "log": "retoccmonitor task failure",
        "name": "Selhání testu systému"
    }, {
        "number": "159",
        "alarmId": "SAFETY_NOT_RESPONDING",
        "log": "Safety not responding to starting protocol",
        "name": "Selhání testu systému"
    }, {
        "number": "160",
        "alarmId": "SAFETY_STATUS_INACTIVE",
        "log": "Safety status not seen within time limit",
        "name": "Selhání testu systému"
    }, {
        "number": "161",
        "alarmId": "SOFTWARE_CRC_CHECK_FAILURE",
        "log": "CRC check of installed software failed",
        "name": "Selhání testu systému"
    }, {
        "number": "162",
        "alarmId": "VIP_CANT_BIND_SOCKET",
        "log": "can't bind vista socket",
        "name": "Selhání testu systému"
    }, {
        "number": "163",
        "alarmId": "VIP_CANT_LISTEN_ON_SOCKET",
        "log": "can't listen on vista socket",
        "name": "Selhání testu systému"
    }, {
        "number": "164",
        "alarmId": "VTARGETCHECKER_DEFAULT",
        "log": "Target checker default case detected",
        "name": "Selhání testu systému"
    }, {
        "number": "165",
        "alarmId": "SOUNDS_DAT_BAD_FILE",
        "log": "sounds.dat file open error",
        "name": "Selhání testu systému"
    }, {
        "number": "166",
        "alarmId": "SOUNDS_DAT_VALUE_NOT_FOUND",
        "log": "sounds.dat file value not found",
        "name": "Selhání testu systému"
    }, {
        "number": "167",
        "alarmId": "SOUNDS_DAT_VALUE_OUT_OF_RANGE",
        "log": "sounds.dat file value out of range",
        "name": "Selhání testu systému"
    }, {
        "number": "168",
        "alarmId": "SOUNDS_DAT_PARSE_ERROR",
        "log": "sounds.dat file parsing error",
        "name": "Selhání testu systému"
    }, {
        "number": "169",
        "alarmId": "SOUNDS_DAT_CRC_CHECK_FAILURE",
        "log": "sounds.dat CRC check failed",
        "name": "Selhání testu systému"
    }, {
        "number": "171",
        "alarmId": "EVACUATION_PRESSURE_ALERT_FINAL",
        "log": "Pressure detected during bag evacuation Ending Run ",
        "name": "Selhání odstraňování vzduchu"
    }, {
        "number": "172",
        "alarmId": "SW_CONFIG_VALUE_NOT_FOUND",
        "log": "SW configuration file value not found",
        "name": "Selhání testu systému"
    }, {
        "number": "32769",
        "alarmId": "PWR_SWITCH_24V_FAILED",
        "log": "<Safety> T1 24V Switch FAILED",
        "name": "selhání systémového testu"
    }, {
        "number": "32770",
        "alarmId": "PWR_SWITCH_64V_FAILED",
        "log": "<Safety> T1 64V Switch FAILED",
        "name": "selhání systémového testu"
    }, {
        "number": "32771",
        "alarmId": "PWR_SWITCH_BOTH_FAILED",
        "log": "<Safety> T1 24V AND 64V Switch FAILED",
        "name": "selhání systémového testu"
    }, {
        "number": "32772",
        "alarmId": "DONOR_SEX_INVALID",
        "log": "<Safety> TBV Processing FAILED - Donor Sex INVALID ",
        "name": "nesprávné pohlaví dárce"
    }, {
        "number": "32773",
        "alarmId": "TBV_UNITS_UNKNOWN",
        "log": "<Safety> TBV Processing FAILED - Ht/Wt Units UNKNOWN ",
        "name": "nesprávné jednotky celkového objemu krve dárce"
    }, {
        "number": "32774",
        "alarmId": "DONOR_WEIGHT_TOO_LOW",
        "log": "<Safety> TBV Processing FAILED - Donor Weight TOO LOW ",
        "name": "hmotnost dárce je příliš malá"
    }, {
        "number": "32775",
        "alarmId": "DONOR_WEIGHT_TOO_HIGH",
        "log": "<Safety> TBV Processing FAILED - Donor Weight TOO HIGH ",
        "name": "váha dárce příliš vysoká"
    }, {
        "number": "32776",
        "alarmId": "DONOR_HEIGHT_TOO_LOW",
        "log": "<Safety> TBV Processing FAILED - Donor Height TOO LOW ",
        "name": "výška dárce příliš malá"
    }, {
        "number": "32777",
        "alarmId": "DONOR_HEIGHT_TOO_HIGH",
        "log": "<Safety> TBV Processing FAILED - Donor Height TOO HIGH ",
        "name": "výška dárce příliš velká"
    }, {
        "number": "32778",
        "alarmId": "DONOR_TBV_TOO_HIGH",
        "log": "<Safety> TBV Processing FAILED - Donor TBV TOO HIGH ",
        "name": "celkový objem krve dárce je příliš vysoký"
    }, {
        "number": "32779",
        "alarmId": "DONOR_TBV_TOO_LOW",
        "log": "<Safety> TBV Processing FAILED - Donor TBV TOO LOW ",
        "name": "celkový objem krve dárce je příliš nízký"
    }, {
        "number": "32780",
        "alarmId": "TBV_COMPARISON_FAILED",
        "log": "<Safety> TBV Processing FAILED - Safety and Procedure TBV Values Comparison Error",
        "name": "nesprávný celkový objem krve"
    }, {
        "number": "32781",
        "alarmId": "CENTRIFUGE_OVERSPEED",
        "log": "<Safety> Centrifuge OVERSPEED",
        "name": "chyba překročení rychlosti centrifugy"
    }, {
        "number": "32782",
        "alarmId": "CENTRIFUGE_ERROR",
        "log": "<Safety> Centrifuge ERROR",
        "name": "chyba centrifugy"
    }, {
        "number": "32783",
        "alarmId": "VALVE_LED_ERROR",
        "log": "<Safety> Valve LED ERROR",
        "name": "chyba senzoru ventilu nebo dveří"
    }, {
        "number": "32784",
        "alarmId": "RESERVOIR_FAILED_T0",
        "log": "<Safety> Low Reservoir Sensor FAILED - Not Air during Startup",
        "name": "selhání systémového testu"
    }, {
        "number": "32785",
        "alarmId": "STATE_TRANSITION_INVALID",
        "log": "<Safety> Detected INVALID State Transition",
        "name": "selhání software"
    }, {
        "number": "32786",
        "alarmId": "SW_FAULT",
        "log": "<Safety> Detected Software Fault",
        "name": "selhání software"
    }, {
        "number": "32787",
        "alarmId": "DONOR_AIR_ALARM",
        "log": "<Safety> Detected Donor Air FAULT",
        "name": "chyba - vzduch k dárci"
    }, {
        "number": "32788",
        "alarmId": "INLET_PUMP_HALL_TOO_BIG",
        "log": "<Safety> Inlet Pump HALL exceeds Encoder FAULT",
        "name": "chyba pumpy"
    }, {
        "number": "32789",
        "alarmId": "INLET_PUMP_HALL_TOO_SMALL",
        "log": "<Safety> Inlet Pump Encoder exceeds Hall FAULT",
        "name": "chyba pumpy"
    }, {
        "number": "32790",
        "alarmId": "RETURN_PUMP_HALL_TOO_BIG",
        "log": "<Safety> Return Pump HALL exceeds Encoder FAULT",
        "name": "chyba pumpy"
    }, {
        "number": "32791",
        "alarmId": "RETURN_PUMP_HALL_TOO_SMALL",
        "log": "<Safety> Return Pump Encoder exceeds Hall FAULT",
        "name": "chyba pumpy"
    }, {
        "number": "32792",
        "alarmId": "AC_PUMP_HALL_TOO_BIG",
        "log": "<Safety> AC Pump HALL exceeds Encoder FAULT",
        "name": "chyba pumpy"
    }, {
        "number": "32793",
        "alarmId": "AC_PUMP_HALL_TOO_SMALL",
        "log": "<Safety> AC Pump Encoder exceeds Hall FAULT",
        "name": "chyba pumpy"
    }, {
        "number": "32794",
        "alarmId": "PLASMA_PUMP_HALL_TOO_BIG",
        "log": "<Safety> Plasma Pump HALL exceeds Encoder FAULT",
        "name": "chyba pumpy"
    }, {
        "number": "32795",
        "alarmId": "PLASMA_PUMP_HALL_TOO_SMALL",
        "log": "<Safety> Plasma Pump Encoder exceeds Hall FAULT",
        "name": "chyba pumpy"
    }, {
        "number": "32796",
        "alarmId": "PLATELET_PUMP_HALL_TOO_BIG",
        "log": "<Safety> Platelet Pump HALL exceeds Encoder FAULT",
        "name": "chyba pumpy"
    }, {
        "number": "32797",
        "alarmId": "PLATELET_PUMP_HALL_TOO_SMALL",
        "log": "<Safety> Platelet Pump Encoder exceeds Hall FAULT",
        "name": "chyba pumpy"
    }, {
        "number": "32798",
        "alarmId": "DONOR_HYPOVOLEMIA_ALARM",
        "log": "<Safety> Detected Donor Hypovolemia",
        "name": "hypovolémie dárce"
    }, {
        "number": "32799",
        "alarmId": "AC_INFUSION_HIGH_ALARM",
        "log": "<Safety> Detected AC Infusion > 1.3 ml/min -l TBV",
        "name": "nadměrný přívod AC roztoku dárci"
    }, {
        "number": "32800",
        "alarmId": "DRAW_CYCLE_TOO_BIG",
        "log": "<Safety> Detected Draw Cycle Too Big ",
        "name": "chyba cyklu"
    }, {
        "number": "32801",
        "alarmId": "RETURN_CYCLE_TOO_BIG",
        "log": "<Safety> Detected Return Cycle Too Big ",
        "name": "Selhání testu systému"
    }, {
        "number": "32802",
        "alarmId": "DOOR_NOT_LOCKED_CENTIFUGE_SPINNING",
        "log": "<Safety> Detected Door not LOCKED and CLOSED w/Centrifuge Spinning ",
        "name": "chyba - centrifuga se točí a dveře nejsou zavřené"
    }, {
        "number": "32803",
        "alarmId": "INAPPROPRIATE_CASSETTE_MOVEMENT",
        "log": "<Safety> Inappropriate Cassette movement.",
        "name": "chyba při pokusu o zvednutí kazety"
    }, {
        "number": "32804",
        "alarmId": "PRIME_TOO_SOON",
        "log": "<Safety> Detected Fluid at Low Level Sensor TOO SOON ",
        "name": "chyba plnění"
    }, {
        "number": "32805",
        "alarmId": "PAUSE_SW_FAILED",
        "log": "<Safety> Control did NOT respond to PAUSE Key.",
        "name": "selhání software"
    }, {
        "number": "32806",
        "alarmId": "STOP_SW_FAILED",
        "log": "<Safety> Control did NOT respond to STOP Key.",
        "name": "selhání software"
    }, {
        "number": "32807",
        "alarmId": "AC_RATIO_TOO_LOW_ALARM",
        "log": "<Safety> AC Ratio too LOW.",
        "name": "AC poměr je příliš nízký"
    }, {
        "number": "32808",
        "alarmId": "AC_RATIO_TOO_HIGH_ALARM",
        "log": "<Safety> AC Ratio TOO High.",
        "name": "AC poměr je příliš vysoký"
    }, {
        "number": "32809",
        "alarmId": "AC_OFF_DURING_DRAW",
        "log": "<Safety> AC OFF During DRAW.",
        "name": "Selhání testu systému"
    }, {
        "number": "32810",
        "alarmId": "SAFETY_STATUS_COMM_ALARM",
        "log": "<Safety> Status Message Timeout",
        "name": "selhání systémového testu"
    }, {
        "number": "32811",
        "alarmId": "AC_ON_DURING_RETURN",
        "log": "<Safety> AC ON During Return",
        "name": "chyba pumpy AC"
    }, {
        "number": "32812",
        "alarmId": "RBC_OUT_OF_POSITION",
        "log": "<Safety> RBC Valve Out Of Position",
        "name": "chyba ventilu"
    }, {
        "number": "32813",
        "alarmId": "PLASMA_OUT_OF_POSITION",
        "log": "<Safety> Plasma Valve Out Of Position",
        "name": "chyba ventilu"
    }, {
        "number": "32814",
        "alarmId": "PLATELET_OUT_OF_POSITION",
        "log": "<Safety> Platelet Valve Out Of Position",
        "name": "chyba ventilu"
    }, {
        "number": "32815",
        "alarmId": "DONOR_HCT_RANGE_ERROR",
        "log": "<Safety> Donor Hct Range Error",
        "name": "nesprávný Htk dárce"
    }, {
        "number": "32816",
        "alarmId": "DONOR_PRECOUNT_RANGE_ERROR",
        "log": "<Safety> Donor Precount Range Error",
        "name": "nevhodná hodnota u dárce před odběrem"
    }, {
        "number": "32817",
        "alarmId": "RBC_WB_PROCESSED_TOO_LARGE",
        "log": "<Safety> RBC Coll WB Processed Limit Exceeded",
        "name": "zpracovaný objem krve je příliš vysoký"
    }, {
        "number": "32818",
        "alarmId": "SAFETY_T1_FAILURE",
        "log": "<Safety> T1 Failure ",
        "name": "selhání systémového testu"
    }, {
        "number": "32819",
        "alarmId": "FIRST_DRAW_CYCLE_TOO_SMALL",
        "log": "<Safety> First Draw < 175.0 ml ",
        "name": "chyba prvního cyklu"
    }, {
        "number": "32820",
        "alarmId": "CASSETTE_NOT_DOWN",
        "log": "<Safety> Cassete not DOWN ",
        "name": "chyba kazety"
    }, {
        "number": "32821",
        "alarmId": "INAPPROPRIATE_AC_PUMP_MOVEMENT",
        "log": "<Safety> Inappropriate AC Pump Movement",
        "name": "chyba pohybu AC pumpy "
    }, {
        "number": "32822",
        "alarmId": "SAFETY_RECYCLE_POWER_ALARM",
        "log": "<Safety> Recycle Power for Next Procedure",
        "name": "napájení bezpečnostního cyklu"
    }, {
        "number": "32823",
        "alarmId": "RETURN_PUMP_SPEED_ALARM_RB",
        "log": "<Safety> Return Pump Speed > 250ml/min During RB",
        "name": "chyba vratné pumpy"
    }, {
        "number": "32824",
        "alarmId": "HYPERVOLEMIA_DETECTED",
        "log": "<Safety> Hypervolemia condition detected",
        "name": "hypervolémie dárce"
    }, {
        "number": "32826",
        "alarmId": "NULL_ALARM",
        "log": "NULL Alarm",
        "name": "NULL ALARM"
    }]
}